<?xml version="1.0" encoding="UTF-8"?>

<svg xmlns="http://www.w3.org/2000/svg" version="1.1"
    xmlns:freecad="http://www.freecadweb.org/wiki/index.php?title=Svg_Namespace"
	width="210mm"
	height="297mm"
	viewBox="0 0 210 297">
	<!-- Working space 0 0 210 297 -->
	<defs>
		<radialGradient
			id="radialGradient3661"
			gradientUnits="userSpaceOnUse"
			cy="29.149"
			cx="282.65"
			gradientTransform="matrix(.14777 .23089 -.24680 .15795 -26.318 -62.617)"
			r="19.571">
				<stop stop-color="#71b2f8" offset="0"/>
				<stop stop-color="#002795" offset="1"/>
		</radialGradient>
		<radialGradient
			id="radialGradient3817"
			gradientUnits="userSpaceOnUse"
			cy="33.9"
			cx="270.58"
			gradientTransform="matrix(.26631 .065024 -.17931 .73438 -60.668 -36.938)"
			r="19.571">
				<stop stop-color="#ff6d0f" offset="0"/>
				<stop stop-color="#ff1000" offset="1"/>
		</radialGradient>
	</defs>
	<!-- Set display:none to hide FreeCAD Logo -->
	<g
		style="display:inline"
		id="freecad-logo"
		transform="translate(184, 272) scale(1)"
		fill-rule="evenodd"
		stroke-width=".45621">
		<path d="m0.22811 0.22835v13.256h2.9558v-5.1876h2.09v-2.0452h-2.09v-2.2075h5.1486v-3.8087l-8.1044-0.0075z"
			stroke="#370700"
			fill="url(#radialGradient3817)"/>
		<path d="m13.386 4.1792-1.7193 0.98645-0.75925-0.26348-0.72439-1.8513-1.1395 0.05988-0.51976 1.9144-0.72743 0.34835-1.8143-0.79367-0.76632 0.85156 0.98645 1.7193-0.26957 0.75702-1.8513 0.72439 0.065967 1.1417 1.9144 0.51976 0.34835 0.72743-0.79976 1.8121 0.85156 0.76632 1.7193-0.98645 0.76311 0.27179 0.7183 1.8491 1.1478-0.06375 0.51367-1.9166 0.72743-0.34835 1.8182 0.80198 0.76632-0.85156-0.98645-1.7193 0.2657-0.76533 1.8491-0.7183-0.05766-1.1456-1.9166-0.51367-0.34835-0.72743 0.7959-1.8204-0.85156-0.76632zm-2.5751 2.8195 0.35295 0.20478 0.30579 0.27725 0.24481 0.33087 0.17611 0.36787 0.10354 0.39656 0.01715 0.4064-0.0587 0.4063-0.13396 0.38571-0.2131 0.35681-0.26894 0.30192-0.33087 0.24481-0.36787 0.17611-0.39656 0.10354-0.40863 0.02325-0.4063-0.0587-0.38571-0.13396-0.35681-0.2131-0.2997-0.27503-0.24703-0.32478-0.17611-0.36787-0.10132-0.40264-0.02324-0.40863 0.05869-0.4063 0.13396-0.38571 0.21087-0.35072 0.27116-0.30801 0.33087-0.24481 0.36787-0.17611 0.40264-0.10132 0.40641-0.01715 0.4063 0.05869 0.38571 0.13396z" 
		stroke="#000137"
		fill="url(#radialGradient3661)"/>
	</g>
<g id="Case"
   transform="rotate(-4.13472e-14,80,150) translate(80,150) scale(1,1)"
  >
<g   fill="none"
   stroke="rgb(0, 0, 0)"
   stroke-dasharray="0.2,0.1)"
   stroke-linecap="butt"
   stroke-linejoin="miter"
   stroke-width="0.150000"
   transform="scale(1,-1)"
  >
<path id= "1" d=" M -0.742462 16.3095 L -1.41421 15.9217 " />
<path id= "2" d=" M -4.24264 17.5547 L -1.41421 15.9217 " />
<path id= "3" d=" M -4.24264 17.5547 L -5.65685 16.7382 " />
<path id= "4" d=" M -5.65685 16.7382 L -2.82843 15.1052 " />
<path id= "5" d=" M -2.58094 15.2481 L -2.82843 15.1052 " />
<path id= "6" d=" M -2.58094 15.2481 L -1.17006 14.4335 " />
<path id= "7" d=" M -0.742462 16.3095 L 0.671751 15.493 " />
<path id= "8" d=" M 37.4767 21.8413 L 51.1592 29.7409 " />
<path id= "9" d=" M 51.1592 29.7409 L 51.1592 59.1348 " />
<path id= "10" d=" M 51.1592 59.1348 L -2.58094 28.1079 " />
<path id= "11" d=" M -2.58094 28.1079 L -2.58094 22.1883 " />
<path id= "12" d=" M 37.4767 45.3156 L -2.58094 22.1883 " />
<path id= "13" d=" M 37.4767 45.3156 L 37.4767 34.7011 " />
<path id= "14" d=" M 36.0624 33.8846 L 37.4767 34.7011 " />
<path id= "15" d=" M 36.0624 42.8661 L 36.0624 33.8846 " />
<path id= "16" d=" M 36.0624 42.8661 L -1.41421 21.2289 " />
<path id= "17" d=" M -1.41421 21.2289 L -1.41421 15.9217 " />
<path id= "18" d=" M -0.742462 14.6765 L -0.742462 16.3095 " />
<path id= "19" d=" M -1.41421 6.12372 L -1.41421 5.74248 " />
<path d="M-1.41421 5.74248 A2.4 1.38564 60 0 0 -0.636396 6.4095" />
<path id= "21" d=" M -0.636396 6.4095 L 3.46482 8.77734 " />
<path d="M3.46482 8.77734 A2.4 1.38564 60 0 0 4.66482 8.89621" />
<path d="M4.66482 8.89621 A2.4 1.38564 60 0 0 3.46482 4.85815" />
<path id= "24" d=" M -0.636396 2.49031 L 3.46482 4.85815 " />
<path d="M-0.636396 2.49031 A2.4 1.38564 60 0 0 -1.41421 2.25919" />
<path id= "26" d=" M -1.41421 2.25919 L -1.41421 0 " />
<path id= "27" d=" M -1.41421 0 L 36.0624 21.6372 " />
<path id= "28" d=" M 36.0624 21.6372 L 36.0624 30.6186 " />
<path id= "29" d=" M 36.0624 30.6186 L 37.4767 31.4351 " />
<path id= "30" d=" M 37.4767 21.8413 L 37.4767 31.4351 " />
<path d="M35.1079 40.0696 A0.6 0.34641 60 0 0 34.3836 39.305" />
<path d="M34.3836 39.305 A0.6 0.34641 60 0 0 34.9836 40.3442" />
<path d="M34.9836 40.3442 A0.6 0.34641 60 0 0 35.1079 40.0696" />
<path id= "34" d=" M 12.5865 26.2095 L 12.5865 11.8392 " />
<path id= "35" d=" M 30.4763 36.5382 L 12.5865 26.2095 " />
<path id= "36" d=" M 12.5865 11.8392 L 17.2888 14.5541 " />
<path id= "37" d=" M 30.4763 22.1679 L 30.4763 24.5357 " />
<path id= "38" d=" M 30.4763 34.5786 L 30.4763 36.5382 " />
<path id= "39" d=" M 17.2888 14.5541 L 17.2888 12.1046 " />
<path id= "40" d=" M 25.774 19.453 L 30.4763 22.1679 " />
<path id= "41" d=" M 17.2888 12.1046 L 25.774 17.0035 " />
<path id= "42" d=" M 25.774 17.0035 L 25.774 19.453 " />
<path d="M35.1079 23.3314 A0.6 0.34641 60 0 0 34.3836 22.5668" />
<path d="M34.3836 22.5668 A0.6 0.34641 60 0 0 34.9836 23.6061" />
<path d="M34.9836 23.6061 A0.6 0.34641 60 0 0 35.1079 23.3314" />
<path id= "46" d=" M -4.24264 22.8619 L -4.24264 17.5547 " />
<path id= "47" d=" M -1.41421 21.2289 L -4.24264 22.8619 " />
<path id= "48" d=" M 33.234 44.4991 L 33.234 35.5176 " />
<path id= "49" d=" M 33.234 35.5176 L 34.6482 36.3341 " />
<path id= "50" d=" M 34.6482 46.9486 L 34.6482 36.3341 " />
<path id= "51" d=" M 34.6482 46.9486 L 27.5772 42.8661 " />
<path id= "52" d=" M 27.5772 41.478 L 27.5772 42.8661 " />
<path id= "53" d=" M 27.5772 41.478 L 26.163 40.6615 " />
<path id= "54" d=" M 26.163 40.6615 L 26.163 42.0496 " />
<path id= "55" d=" M 26.163 42.0496 L 2.82843 28.5774 " />
<path id= "56" d=" M 2.82843 27.1893 L 2.82843 28.5774 " />
<path id= "57" d=" M 2.82843 27.1893 L 1.41421 26.3728 " />
<path id= "58" d=" M 1.41421 26.3728 L 1.41421 27.7609 " />
<path id= "59" d=" M 1.41421 27.7609 L -5.65685 23.6784 " />
<path id= "60" d=" M -5.65685 23.6784 L -5.65685 16.7382 " />
<path id= "61" d=" M 33.234 44.4991 L -4.24264 22.8619 " />
<path id= "62" d=" M -2.82843 22.0454 L -2.82843 15.1052 " />
<path id= "63" d=" M -2.82843 22.0454 L -5.65685 23.6784 " />
<path id= "64" d=" M -2.58094 22.1883 L -2.82843 22.0454 " />
<path id= "65" d=" M -2.58094 22.1883 L -2.58094 15.2481 " />
<path id= "66" d=" M -2.36881 27.9854 L -2.58094 28.1079 " />
<path id= "67" d=" M -2.36881 15.1295 L -2.36881 27.9854 " />
<path id= "68" d=" M -2.36881 15.1295 L -1.16673 14.4354 " />
<path id= "69" d=" M 51.3713 29.6184 L -2.36881 -1.40846 " />
<path id= "70" d=" M 51.3713 29.6184 L 51.1592 29.7409 " />
<path id= "71" d=" M -2.58094 -1.28598 L 37.4767 21.8413 " />
<path id= "72" d=" M -2.36881 -1.40846 L -2.58094 -1.28598 " />
<path id= "73" d=" M 51.3713 59.0123 L 51.3713 29.6184 " />
<path id= "74" d=" M 51.1592 59.1348 L 51.3713 59.0123 " />
<path id= "75" d=" M -2.36881 27.9854 L 51.3713 59.0123 " />
<path id= "76" d=" M 37.4767 45.3156 L 34.6482 46.9486 " />
<path id= "77" d=" M 37.4767 34.7011 L 34.6482 36.3341 " />
<path id= "78" d=" M 36.0624 33.8846 L 33.234 35.5176 " />
<path id= "79" d=" M 36.0624 42.8661 L 33.234 44.4991 " />
<path id= "80" d=" M -2.36881 5.32764 L -2.37214 5.32957 " />
<path id= "81" d=" M -0.777817 4.85815 L -1.9799 5.55218 " />
<path id= "82" d=" M -2.36881 5.32764 L -1.9799 5.55218 " />
<path id= "83" d=" M -1.41421 5.74248 L -1.41421 2.25919 " />
<path id= "84" d=" M -4.24264 7.75672 L -4.24264 1.63299 " />
<path id= "85" d=" M -1.41421 0 L -4.24264 1.63299 " />
<path d="M-0.494975 2.40866 A2.4 1.38564 60 0 0 -1.69497 2.2898" />
<path d="M-1.69497 2.2898 A2.4 1.38564 60 0 0 -0.494975 6.32785" />
<path d="M-1.41421 2.25919 A2.4 1.38564 60 0 0 -1.8364 2.37145" />
<path d="M-1.8364 2.37145 A2.4 1.38564 60 0 0 -1.41421 5.74248" />
<path id= "90" d=" M -0.494975 6.32785 L 3.60624 8.69569 " />
<path d="M3.60624 8.69569 A2.4 1.38564 60 0 0 4.80624 8.81456" />
<path d="M4.80624 8.81456 A2.4 1.38564 60 0 0 3.60624 4.7765" />
<path id= "93" d=" M -0.494975 2.40866 L 3.60624 4.7765 " />
<path id= "94" d=" M -4.24264 1.63299 L 0.693103 4.48265 " />
<path id= "95" d=" M 3.90793 6.33873 L 33.234 23.2702 " />
<path id= "96" d=" M 36.0624 21.6372 L 33.234 23.2702 " />
<path id= "97" d=" M 33.234 23.2702 L 33.234 32.2516 " />
<path id= "98" d=" M 36.0624 30.6186 L 33.234 32.2516 " />
<path id= "99" d=" M 33.234 32.2516 L 34.6482 33.0681 " />
<path id= "100" d=" M 37.4767 31.4351 L 34.6482 33.0681 " />
<path id= "101" d=" M 37.4767 20.8207 L 34.6482 22.4537 " />
<path id= "102" d=" M 37.4767 20.8207 L 37.4767 21.8413 " />
<path id= "103" d=" M 34.6482 22.4537 L 34.6482 33.0681 " />
<path d="M32.2794 41.7026 A0.6 0.34641 60 0 0 31.5552 40.938" />
<path d="M31.5552 40.938 A0.6 0.34641 60 0 0 32.1552 41.9772" />
<path d="M32.1552 41.9772 A0.6 0.34641 60 0 0 32.2794 41.7026" />
<path id= "107" d=" M 13.6472 25.5972 L 12.5865 26.2095 " />
<path id= "108" d=" M 13.6472 25.5972 L 13.6472 11.2268 " />
<path id= "109" d=" M 13.6472 11.2268 L 12.5865 11.8392 " />
<path id= "110" d=" M 31.537 35.9258 L 30.4763 36.5382 " />
<path id= "111" d=" M 31.537 35.9258 L 13.6472 25.5972 " />
<path id= "112" d=" M 13.6472 11.2268 L 18.3494 13.9417 " />
<path id= "113" d=" M 17.2888 14.5541 L 18.3494 13.9417 " />
<path id= "114" d=" M 31.537 21.5555 L 30.4763 22.1679 " />
<path id= "115" d=" M 31.537 21.5555 L 31.537 35.9258 " />
<path id= "116" d=" M 17.2888 12.1046 L 18.3494 11.4922 " />
<path id= "117" d=" M 18.3494 11.4922 L 18.3494 13.9417 " />
<path id= "118" d=" M 26.8347 18.8407 L 31.537 21.5555 " />
<path id= "119" d=" M 25.774 19.453 L 26.8347 18.8407 " />
<path id= "120" d=" M 25.774 17.0035 L 26.8347 16.3912 " />
<path id= "121" d=" M 26.8347 16.3912 L 18.3494 11.4922 " />
<path id= "122" d=" M 26.8347 18.8407 L 26.8347 16.3912 " />
<path d="M32.2794 24.9644 A0.6 0.34641 60 0 0 31.5552 24.1998" />
<path d="M31.5552 24.1998 A0.6 0.34641 60 0 0 32.1552 25.239" />
<path d="M32.1552 25.239 A0.6 0.34641 60 0 0 32.2794 24.9644" />
<path id= "126" d=" M 27.5772 42.8661 L 25.7849 43.9009 " />
<path id= "127" d=" M 25.7849 43.9009 L 27.1785 40.798 " />
<path d="M27.1785 40.798 A0.2 0.11547 120 0 1 27.3943 40.6516" />
<path d="M27.3943 40.6516 A0.2 0.11547 120 0 1 27.4357 40.7432" />
<path id= "130" d=" M 27.4357 40.7432 L 27.4357 41.5597 " />
<path id= "131" d=" M 27.4357 41.5597 L 27.5772 41.478 " />
<path id= "132" d=" M 26.0215 40.7432 L 26.163 40.6615 " />
<path id= "133" d=" M 27.4357 41.5597 L 26.0215 40.7432 " />
<path id= "134" d=" M 26.163 42.0496 L 24.3706 43.0844 " />
<path id= "135" d=" M 24.3706 43.0844 L 25.7643 39.9816 " />
<path d="M25.7643 39.9816 A0.2 0.11547 120 0 1 25.9801 39.8351" />
<path d="M25.9801 39.8351 A0.2 0.11547 120 0 1 26.0215 39.9267" />
<path id= "138" d=" M 26.0215 39.9267 L 26.0215 40.7432 " />
<path id= "139" d=" M 2.82843 28.5774 L 1.03611 29.6122 " />
<path id= "140" d=" M 1.03611 29.6122 L 2.42974 26.5094 " />
<path d="M2.42974 26.5094 A0.2 0.11547 120 0 1 2.64558 26.3629" />
<path d="M2.64558 26.3629 A0.2 0.11547 120 0 1 2.68701 26.4545" />
<path id= "143" d=" M 2.68701 26.4545 L 2.68701 27.271 " />
<path id= "144" d=" M 2.68701 27.271 L 2.82843 27.1893 " />
<path id= "145" d=" M 1.27279 26.4545 L 1.41421 26.3728 " />
<path id= "146" d=" M 2.68701 27.271 L 1.27279 26.4545 " />
<path id= "147" d=" M 1.41421 27.7609 L -0.378101 28.7957 " />
<path id= "148" d=" M -0.378101 28.7957 L 1.01553 25.6929 " />
<path d="M1.01553 25.6929 A0.2 0.11547 120 0 1 1.23137 25.5464" />
<path d="M1.23137 25.5464 A0.2 0.11547 120 0 1 1.27279 25.638" />
<path id= "151" d=" M 1.27279 25.638 L 1.27279 26.4545 " />
<path id= "152" d=" M -1.9799 5.55603 L -1.9799 5.55218 " />
<path id= "153" d=" M -3.9598 4.41293 L -3.9598 -4.16028 " />
<path id= "154" d=" M -3.9598 -4.16028 L 52.9588 28.7017 " />
<path id= "155" d=" M 52.9588 28.7017 L 52.9588 61.7658 " />
<path id= "156" d=" M 52.9588 61.7658 L -3.9598 28.9038 " />
<path id= "157" d=" M -3.9598 28.9038 L -3.9598 14.2109 " />
<path id= "158" d=" M -2.36881 15.1295 L -3.9598 14.2109 " />
<path id= "159" d=" M -2.36881 -1.40846 L -2.36881 5.32764 " />
<path id= "160" d=" M -6.50831 13.886 L -5.30623 14.58 " />
<path id= "161" d=" M -4.6669 14.2109 L -5.30623 14.58 " />
<path d="M-3.9598 14.2109 A0.5 0.288675 180 0 0 -4.6669 14.2109" />
<path id= "163" d=" M -2.82843 5.06613 L -2.82843 -2.44949 " />
<path id= "164" d=" M -2.82843 -2.44949 L 37.4767 20.8207 " />
<path id= "165" d=" M -2.58094 5.20902 L -2.58094 -1.28598 " />
<path id= "166" d=" M -2.82843 -2.44949 L -5.65685 -0.816497 " />
<path id= "167" d=" M -5.65685 4.57962 L -5.65685 -0.816497 " />
<path id= "168" d=" M -5.65685 -0.816497 L 1.41421 3.26599 " />
<path id= "169" d=" M 1.41421 4.65403 L 1.41421 3.26599 " />
<path id= "170" d=" M 1.41421 4.65403 L 2.82843 5.47053 " />
<path id= "171" d=" M 2.82843 5.47053 L 2.82843 4.08248 " />
<path id= "172" d=" M 2.82843 4.08248 L 26.163 17.5547 " />
<path id= "173" d=" M 26.163 18.9427 L 26.163 17.5547 " />
<path id= "174" d=" M 26.163 18.9427 L 27.5772 19.7592 " />
<path id= "175" d=" M 27.5772 19.7592 L 27.5772 18.3712 " />
<path id= "176" d=" M 27.5772 18.3712 L 34.6482 22.4537 " />
<path id= "177" d=" M 0.141421 3.51094 L 0.374983 3.64578 " />
<path d="M2.96985 7.59342 A1.5 0.866025 60 0 0 3.71985 7.66771" />
<path d="M3.71985 7.66771 A1.5 0.866025 60 0 0 4.00908 6.72372" />
<path id= "180" d=" M 0.141421 5.96043 L 2.96985 7.59342 " />
<path d="M0.141421 3.51094 A1.5 0.866025 60 0 0 -0.608579 3.43664" />
<path d="M-0.608579 3.43664 A1.5 0.866025 60 0 0 0.141421 5.96043" />
<path id= "183" d=" M 13.93 25.4339 L 31.2541 35.436 " />
<path id= "184" d=" M 13.93 14.9827 L 13.93 25.4339 " />
<path id= "185" d=" M 14.2836 15.1868 L 13.93 14.9827 " />
<path id= "186" d=" M 31.2541 35.436 L 31.2541 35.0277 " />
<path id= "187" d=" M 13.93 25.4339 L 14.2836 25.2297 " />
<path id= "188" d=" M 31.2541 35.436 L 31.6077 35.2318 " />
<path id= "189" d=" M 13.93 14.9827 L 14.2836 14.7786 " />
<path id= "190" d=" M 25.7849 43.9009 L 24.3706 43.0844 " />
<path id= "191" d=" M 1.03611 29.6122 L -0.378101 28.7957 " />
<path d="M-3.9598,-4.16028 C-4.05231,-4.32097 -4.18224,-4.45813 -4.31335,-4.53351 " /><path d="M-4.31335,-4.53351 C-4.44446,-4.60953 -4.57439,-4.6224 -4.6669,-4.56853 " /><path d="M52.9588,28.7017 C53.0517,28.6481 53.1056,28.617 53.1053,28.6172 " /><path d="M53.1053,28.6172 C53.1056,28.617 53.0517,28.6481 52.9588,28.7017 " /><path d="M52.9588,61.7658 C53.0517,61.9263 53.1056,62.1074 53.1053,62.2586 " /><path d="M53.1053,62.2586 C53.1056,62.4102 53.0517,62.5291 52.9588,62.5823 " /><path d="M-3.9598,28.9038 C-4.14482,29.0107 -4.48188,29.2053 -4.6669,29.3121 " /><path id= "199" d=" M -6.22254 14.2925 L -5.02046 14.9866 " />
<path id= "200" d=" M -5.30623 14.58 L -5.02046 14.9866 " />
<path id= "201" d=" M -5.02046 14.9866 L -6.43467 15.8031 " />
<path id= "202" d=" M -6.43467 15.8031 L -6.1489 15.0665 " />
<path id= "203" d=" M -6.1489 15.0665 L -8.34386 16.3338 " />
<path id= "204" d=" M -8.34386 14.9457 L -8.34386 16.3338 " />
<path id= "205" d=" M -5.02046 4.04551 L -5.80121 4.49627 " />
<path id= "206" d=" M -5.30623 4.78205 L -5.02046 4.04551 " />
<path id= "207" d=" M -19.696 4.1085 L -4.6669 -4.56853 " />
<path id= "208" d=" M -19.696 37.9891 L -19.696 4.1085 " />
<path id= "209" d=" M -19.696 37.9891 L -4.6669 29.3121 " />
<path id= "210" d=" M 1.41421 3.26599 L -0.378101 4.30078 " />
<path id= "211" d=" M -0.378101 4.30078 L 1.01553 5.79437 " />
<path d="M1.01553 5.79437 A0.2 0.11547 -60 0 0 1.03137 5.80703" />
<path d="M1.03137 5.80703 A0.2 0.11547 -60 0 0 1.27279 5.55218" />
<path id= "214" d=" M 1.27279 5.55218 L 1.27279 5.13299 " />
<path id= "215" d=" M 1.27279 4.81733 L 1.27279 4.73568 " />
<path id= "216" d=" M 1.27279 4.73568 L 1.41421 4.65403 " />
<path id= "217" d=" M 2.68701 5.55218 L 2.82843 5.47053 " />
<path id= "218" d=" M 1.27279 4.73568 L 2.68701 5.55218 " />
<path id= "219" d=" M 2.82843 4.08248 L 1.03611 5.11728 " />
<path id= "220" d=" M 1.03611 5.11728 L 2.42974 6.61087 " />
<path d="M2.42974 6.61087 A0.2 0.11547 -60 0 0 2.44558 6.62353" />
<path d="M2.44558 6.62353 A0.2 0.11547 -60 0 0 2.68701 6.36867" />
<path id= "223" d=" M 2.68701 6.36867 L 2.68701 5.96043 " />
<path id= "224" d=" M 2.68701 5.63383 L 2.68701 5.55218 " />
<path id= "225" d=" M 26.163 17.5547 L 24.3706 18.5895 " />
<path id= "226" d=" M 24.3706 18.5895 L 25.7643 20.0831 " />
<path d="M25.7643 20.0831 A0.2 0.11547 -60 0 0 25.7801 20.0957" />
<path d="M25.7801 20.0957 A0.2 0.11547 -60 0 0 26.0215 19.8409" />
<path id= "229" d=" M 26.0215 19.8409 L 26.0215 19.0244 " />
<path id= "230" d=" M 26.0215 19.0244 L 26.163 18.9427 " />
<path id= "231" d=" M 27.4357 19.8409 L 27.5772 19.7592 " />
<path id= "232" d=" M 26.0215 19.0244 L 27.4357 19.8409 " />
<path id= "233" d=" M 27.5772 18.3712 L 25.7849 19.406 " />
<path id= "234" d=" M 25.7849 19.406 L 27.1785 20.8996 " />
<path d="M27.1785 20.8996 A0.2 0.11547 -60 0 0 27.1943 20.9122" />
<path d="M27.1943 20.9122 A0.2 0.11547 -60 0 0 27.4357 20.6574" />
<path id= "237" d=" M 27.4357 20.6574 L 27.4357 19.8409 " />
<path id= "238" d=" M -6.22254 3.35149 L -5.02046 4.04551 " />
<path id= "239" d=" M 37.9298 37.3787 L 52.9588 28.7017 " />
<path id= "240" d=" M -19.696 4.1085 L -8.34386 10.6626 " />
<path id= "241" d=" M -4.6331 12.805 L 14.2836 23.7266 " />
<path id= "242" d=" M 30.4763 33.0755 L 37.9298 37.3787 " />
<path id= "243" d=" M 37.9298 71.2594 L 52.9588 62.5823 " />
<path id= "244" d=" M 37.9298 37.3787 L 37.9298 71.2594 " />
<path d="M44.028 39.9778 A1 0.57735 -60 0 0 44.528 38.2953" />
<path d="M44.528 38.2953 A1 0.57735 -60 1 0 43.528 40.0273" />
<path d="M43.528 40.0273 A1 0.57735 -60 0 0 44.028 39.9778" />
<path d="M47.0899 40.2513 A1 0.57735 -60 0 0 47.5899 38.5688" />
<path d="M47.5899 38.5688 A1 0.57735 -60 0 0 46.5899 40.3008" />
<path d="M46.5899 40.3008 A1 0.57735 -60 0 0 47.0899 40.2513" />
<path d="M44.028 44.0603 A1 0.57735 -60 0 0 44.528 42.3778" />
<path d="M44.528 42.3778 A1 0.57735 -60 0 0 43.528 44.1098" />
<path d="M43.528 44.1098 A1 0.57735 -60 0 0 44.028 44.0603" />
<path d="M50.1517 40.5248 A1 0.57735 -60 0 0 50.6517 38.8422" />
<path d="M50.6517 38.8422 A1 0.57735 -60 0 0 49.6517 40.5743" />
<path d="M49.6517 40.5743 A1 0.57735 -60 0 0 50.1517 40.5248" />
<path d="M50.1517 36.4423 A1 0.57735 -60 0 0 50.6517 34.7598" />
<path d="M50.6517 34.7598 A1 0.57735 -60 0 0 49.6517 36.4918" />
<path d="M49.6517 36.4918 A1 0.57735 -60 0 0 50.1517 36.4423" />
<path d="M47.0899 36.1688 A1 0.57735 -60 0 0 47.5899 34.4863" />
<path d="M47.5899 34.4863 A1 0.57735 -60 1 0 46.5899 36.2183" />
<path d="M46.5899 36.2183 A1 0.57735 -60 0 0 47.0899 36.1688" />
<path d="M47.0899 44.3338 A1 0.57735 -60 0 0 47.5899 42.6512" />
<path d="M47.5899 42.6512 A1 0.57735 -60 1 0 46.5899 44.3833" />
<path d="M46.5899 44.3833 A1 0.57735 -60 0 0 47.0899 44.3338" />
<path id= "266" d=" M 37.9298 71.2594 L -19.696 37.9891 " />
<path d="M42.285 61.1555 A3 1.73205 9.73842e-15 0 1 47.4063 62.3802" />
<path d="M47.4063 62.3802 A3 1.73205 9.73842e-15 0 1 47.1549 63.0742" />
<path d="M41.6577 63.0742 A3 1.73205 9.73842e-15 0 1 41.4063 62.3802" />
<path d="M41.4063 62.3802 A3 1.73205 9.73842e-15 0 1 42.285 61.1555" />
<path id= "271" d=" M -24.1123 3.88221 L 35.9176 38.5405 " />
<path id= "272" d=" M 35.9176 38.5405 L 35.9176 75.1972 " />
<path id= "273" d=" M -22.9103 5.96428 L -8.34386 14.3742 " />
<path id= "274" d=" M -7.84889 14.66 L 34.7155 39.2345 " />
<path id= "275" d=" M 34.7155 39.2345 L 34.7155 73.1151 " />
<path id= "276" d=" M 34.7155 73.1151 L -22.9103 39.8449 " />
<path id= "277" d=" M -22.9103 39.8449 L -22.9103 5.96428 " />
<path id= "278" d=" M 35.9176 38.5405 L 55.363 27.3137 " />
<path id= "279" d=" M -9.54594 15.6398 L -8.34386 16.3338 " />
<path id= "280" d=" M -6.856 14.6583 L -6.1489 15.0665 " />
<path id= "281" d=" M -7.63675 15.109 L -6.43467 15.8031 " />
<path id= "282" d=" M -19.696 37.9891 L -19.2687 37.7424 " />
<path id= "283" d=" M -19.2687 37.7424 L -19.2687 4.43335 " />
<path id= "284" d=" M -19.696 4.1085 L -19.2687 4.43335 " />
<path d="M55.5095,27.2291 C55.5097,27.229 55.4559,27.26 55.363,27.3137 " /><path id= "286" d=" M -0.378101 4.30078 L 1.03611 5.11728 " />
<path id= "287" d=" M 24.3706 18.5895 L 25.7849 19.406 " />
<path id= "288" d=" M -19.2687 4.43335 L -8.34386 10.7408 " />
<path id= "289" d=" M -4.70226 12.8433 L 14.2836 23.8047 " />
<path id= "290" d=" M 30.4763 33.1536 L 37.8621 37.4178 " />
<path id= "291" d=" M 37.9298 37.3787 L 37.8621 37.4178 " />
<path id= "292" d=" M 37.8621 37.4178 L 37.8621 70.7269 " />
<path id= "293" d=" M 37.9298 71.2594 L 37.8621 70.7269 " />
<path d="M45.3715,40.7535 L44.028,39.9778 " /><path d="M45.3715 40.7535 A1 0.57735 -60 0 0 45.8715 39.071" />
<path d="M45.8715 39.071 A1 0.57735 -60 1 0 44.8715 40.803" />
<path d="M44.8715 40.803 A1 0.57735 -60 0 0 45.3715 40.7535" />
<path d="M48.4334,41.027 L47.0899,40.2513 " /><path d="M48.4334 41.027 A1 0.57735 -60 0 0 48.9334 39.3444" />
<path d="M48.9334 39.3444 A1 0.57735 -60 1 0 47.9334 41.0765" />
<path d="M47.9334 41.0765 A1 0.57735 -60 0 0 48.4334 41.027" />
<path d="M45.3715,44.836 L44.028,44.0603 " /><path d="M45.3715 44.836 A1 0.57735 -60 0 0 45.8715 43.1534" />
<path d="M45.8715 43.1534 A1 0.57735 -60 1 0 44.8715 44.8855" />
<path d="M44.8715 44.8855 A1 0.57735 -60 0 0 45.3715 44.836" />
<path d="M51.4952,41.3004 L50.1517,40.5248 " /><path d="M51.4952 41.3004 A1 0.57735 -60 0 0 51.9952 39.6179" />
<path d="M51.9952 39.6179 A1 0.57735 -60 1 0 50.9952 41.35" />
<path d="M50.9952 41.35 A1 0.57735 -60 0 0 51.4952 41.3004" />
<path d="M51.4952,37.218 L50.1517,36.4423 " /><path d="M51.4952 37.218 A1 0.57735 -60 0 0 51.9952 35.5354" />
<path d="M51.9952 35.5354 A1 0.57735 -60 1 0 50.9952 37.2675" />
<path d="M50.9952 37.2675 A1 0.57735 -60 0 0 51.4952 37.218" />
<path d="M48.4334,36.9445 L47.0899,36.1688 " /><path d="M48.4334 36.9445 A1 0.57735 -60 0 0 48.9334 35.262" />
<path d="M48.9334 35.262 A1 0.57735 -60 1 0 47.9334 36.994" />
<path d="M47.9334 36.994 A1 0.57735 -60 0 0 48.4334 36.9445" />
<path d="M48.4334,45.1094 L47.0899,44.3338 " /><path d="M48.4334 45.1094 A1 0.57735 -60 0 0 48.9334 43.4269" />
<path d="M48.9334 43.4269 A1 0.57735 -60 1 0 47.9334 45.159" />
<path d="M47.9334 45.159 A1 0.57735 -60 0 0 48.4334 45.1094" />
<path id= "322" d=" M 37.8621 70.7269 L -19.2687 37.7424 " />
<path d="M45.2301 41.0801 A1.5 0.866025 -60 0 0 45.9801 38.5563" />
<path d="M45.9801 38.5563 A1.5 0.866025 -60 0 0 44.4801 41.1544" />
<path d="M44.4801 41.1544 A1.5 0.866025 -60 0 0 45.2301 41.0801" />
<path d="M45.2301 45.1626 A1.5 0.866025 -60 0 0 45.9801 42.6388" />
<path d="M45.9801 42.6388 A1.5 0.866025 -60 0 0 44.4801 45.2369" />
<path d="M44.4801 45.2369 A1.5 0.866025 -60 0 0 45.2301 45.1626" />
<path d="M48.2919 45.436 A1.5 0.866025 -60 0 0 49.0419 42.9123" />
<path d="M49.0419 42.9123 A1.5 0.866025 -60 0 0 47.5419 45.5103" />
<path d="M47.5419 45.5103 A1.5 0.866025 -60 0 0 48.2919 45.436" />
<path d="M48.2919 41.3536 A1.5 0.866025 -60 0 0 49.0419 38.8298" />
<path d="M49.0419 38.8298 A1.5 0.866025 -60 0 0 47.5419 41.4279" />
<path d="M47.5419 41.4279 A1.5 0.866025 -60 0 0 48.2919 41.3536" />
<path d="M51.3538 41.627 A1.5 0.866025 -60 0 0 52.1038 39.1032" />
<path d="M52.1038 39.1032 A1.5 0.866025 -60 0 0 50.6038 41.7013" />
<path d="M50.6038 41.7013 A1.5 0.866025 -60 0 0 51.3538 41.627" />
<path d="M51.3538 37.5445 A1.5 0.866025 -60 0 0 52.1038 35.0208" />
<path d="M52.1038 35.0208 A1.5 0.866025 -60 0 0 50.6038 37.6188" />
<path d="M50.6038 37.6188 A1.5 0.866025 -60 0 0 51.3538 37.5445" />
<path d="M48.2919 37.2711 A1.5 0.866025 -60 0 0 49.0419 34.7473" />
<path d="M49.0419 34.7473 A1.5 0.866025 -60 0 0 47.5419 37.3454" />
<path d="M47.5419 37.3454 A1.5 0.866025 -60 0 0 48.2919 37.2711" />
<path id= "344" d=" M -20.7889 4.73953 L 36.8368 38.0098 " />
<path id= "345" d=" M -22.9103 5.96428 L -20.7889 4.73953 " />
<path id= "346" d=" M 34.7155 39.2345 L 36.8368 38.0098 " />
<path id= "347" d=" M 36.8368 38.0098 L 36.8368 71.8904 " />
<path id= "348" d=" M 34.7155 73.1151 L 36.8368 71.8904 " />
<path id= "349" d=" M 36.8368 71.8904 L -20.7889 38.6202 " />
<path id= "350" d=" M -22.9103 39.8449 L -20.7889 38.6202 " />
<path id= "351" d=" M -20.7889 38.6202 L -20.7889 4.73953 " />
<path id= "352" d=" M -20.4 38.3956 L -19.2687 37.7424 " />
<path id= "353" d=" M -20.4 5.08654 L -19.2687 4.43335 " />
<path id= "354" d=" M 36.7307 38.071 L 37.8621 37.4178 " />
<path id= "355" d=" M 36.7307 71.3801 L 37.8621 70.7269 " />
<path d="M45.3715 41.1617 A1.5 0.866025 -60 0 0 46.1215 38.6379" />
<path d="M46.1215 38.6379 A1.5 0.866025 -60 0 0 44.6215 41.236" />
<path d="M44.6215 41.236 A1.5 0.866025 -60 0 0 45.3715 41.1617" />
<path d="M48.4334 41.4352 A1.5 0.866025 -60 0 0 49.1834 38.9114" />
<path d="M49.1834 38.9114 A1.5 0.866025 -60 0 0 47.6834 41.5095" />
<path d="M47.6834 41.5095 A1.5 0.866025 -60 0 0 48.4334 41.4352" />
<path d="M45.3715 45.2442 A1.5 0.866025 -60 0 0 46.1215 42.7204" />
<path d="M46.1215 42.7204 A1.5 0.866025 -60 0 0 44.6215 45.3185" />
<path d="M44.6215 45.3185 A1.5 0.866025 -60 0 0 45.3715 45.2442" />
<path d="M51.4952 41.7087 A1.5 0.866025 -60 0 0 52.2452 39.1849" />
<path d="M52.2452 39.1849 A1.5 0.866025 -60 0 0 50.7452 41.783" />
<path d="M50.7452 41.783 A1.5 0.866025 -60 0 0 51.4952 41.7087" />
<path d="M51.4952 37.6262 A1.5 0.866025 -60 0 0 52.2452 35.1024" />
<path d="M52.2452 35.1024 A1.5 0.866025 -60 0 0 50.7452 37.7005" />
<path d="M50.7452 37.7005 A1.5 0.866025 -60 0 0 51.4952 37.6262" />
<path d="M48.4334 37.3527 A1.5 0.866025 -60 0 0 49.1834 34.8289" />
<path d="M49.1834 34.8289 A1.5 0.866025 -60 0 0 47.6834 37.427" />
<path d="M47.6834 37.427 A1.5 0.866025 -60 0 0 48.4334 37.3527" />
<path d="M48.4334 45.5177 A1.5 0.866025 -60 0 0 49.1834 42.9939" />
<path d="M49.1834 42.9939 A1.5 0.866025 -60 0 0 47.6834 45.592" />
<path d="M47.6834 45.592 A1.5 0.866025 -60 0 0 48.4334 45.5177" />
<path id= "377" d=" M -20.6829 4.92324 L 36.7307 38.071 " />
<path id= "378" d=" M 36.7307 38.071 L 36.7307 71.7067 " />
<path id= "379" d=" M 36.7307 71.7067 L -20.6829 38.5589 " />
<path id= "380" d=" M -20.6829 38.5589 L -20.6829 4.92324 " />
<path d="M-20.6829,38.5589 C-20.6089,38.5162 -20.474,38.4383 -20.4,38.3956 " /><path d="M-20.6829,4.92324 C-20.6459,4.98752 -20.5939,5.04238 -20.5415,5.07253 " /><path d="M-20.5415,5.07253 Q-20.4592,5.1185 -20.4,5.08654 " /><path d="M36.7307,38.071 Q36.6735,38.1041 36.6722,38.1048 " /><path d="M36.6722,38.1048 Q36.6735,38.1041 36.7307,38.071 " /><path d="M36.7307,71.7067 C36.6936,71.6425 36.6721,71.5701 36.6722,71.5096 " /><path d="M36.6722,71.5096 Q36.6735,71.4153 36.7307,71.3801 " /><path id= "388" d=" M 36.0624 22.0454 L 36.2746 21.9229 " />
<path id= "389" d=" M 36.0624 22.0454 L 36.0624 30.2104 " />
<path id= "390" d=" M 36.2746 21.9229 L 36.2746 30.0879 " />
<path id= "391" d=" M 36.0624 30.2104 L 36.2746 30.0879 " />
<path id= "392" d=" M 36.911 22.5353 L 37.1231 22.4128 " />
<path id= "393" d=" M 36.911 22.5353 L 36.0624 22.0454 " />
<path id= "394" d=" M 37.1231 22.4128 L 36.2746 21.9229 " />
<path id= "395" d=" M 36.0624 30.2104 L 36.911 30.7003 " />
<path id= "396" d=" M 36.911 30.7003 L 36.911 22.5353 " />
<path id= "397" d=" M 36.2746 30.0879 L 37.1231 30.5778 " />
<path id= "398" d=" M 37.1231 30.5778 L 37.1231 22.4128 " />
<path id= "399" d=" M 36.911 30.7003 L 37.1231 30.5778 " />
</g>
<g   fill="none"
   stroke="rgb(0, 0, 0)"
   stroke-dasharray="0.02,0.1)"
   stroke-linecap="butt"
   stroke-linejoin="miter"
   stroke-width="0.150000"
   transform="scale(1,-1)"
  >
<path id= "1" d=" M -1.69497 2.2898 L -1.8364 2.37145 " />
<path id= "2" d=" M 4.80624 8.81456 L 4.66482 8.89621 " />
<path id= "3" d=" M 31.5552 40.938 L 34.3836 39.305 " />
<path id= "4" d=" M 32.1552 41.9772 L 34.9836 40.3442 " />
<path id= "5" d=" M 31.5552 24.1998 L 34.3836 22.5668 " />
<path id= "6" d=" M 32.1552 25.239 L 34.9836 23.6061 " />
<path id= "7" d=" M 0.664214 2.7018 L -0.608579 3.43664 " />
<path id= "8" d=" M 4.99264 6.93286 L 3.71985 7.66771 " />
<path id= "9" d=" M 25.9801 39.8351 L 27.3943 40.6516 " />
<path id= "10" d=" M 1.23137 25.5464 L 2.64558 26.3629 " />
<path id= "11" d=" M -4.31335 -4.53351 L 53.1053 28.6172 " />
<path id= "12" d=" M 53.1053 28.6172 L 53.1053 62.2586 " />
<path id= "13" d=" M 2.44558 6.62353 L 1.03137 5.80703 " />
<path id= "14" d=" M 27.1943 20.9122 L 25.7801 20.0957 " />
<path id= "15" d=" M 44.8715 40.803 L 43.528 40.0273 " />
<path id= "16" d=" M 45.8715 39.071 L 44.528 38.2953 " />
<path id= "17" d=" M 47.9334 41.0765 L 46.5899 40.3008 " />
<path id= "18" d=" M 48.9334 39.3444 L 47.5899 38.5688 " />
<path id= "19" d=" M 44.8715 44.8855 L 43.528 44.1098 " />
<path id= "20" d=" M 45.8715 43.1534 L 44.528 42.3778 " />
<path id= "21" d=" M 50.9952 41.35 L 49.6517 40.5743 " />
<path id= "22" d=" M 51.9952 39.6179 L 50.6517 38.8422 " />
<path id= "23" d=" M 50.9952 37.2675 L 49.6517 36.4918 " />
<path id= "24" d=" M 51.9952 35.5354 L 50.6517 34.7598 " />
<path id= "25" d=" M 47.9334 36.994 L 46.5899 36.2183 " />
<path id= "26" d=" M 48.9334 35.262 L 47.5899 34.4863 " />
<path id= "27" d=" M 47.9334 45.159 L 46.5899 44.3833 " />
<path id= "28" d=" M 48.9334 43.4269 L 47.5899 42.6512 " />
<path id= "29" d=" M 47.4063 62.3802 L 47.4063 63.7682 " />
<path id= "30" d=" M 41.4063 62.3802 L 41.4063 63.7682 " />
<path id= "31" d=" M 44.6215 41.236 L 44.4801 41.1544 " />
<path id= "32" d=" M 46.1215 38.6379 L 45.9801 38.5563 " />
<path id= "33" d=" M 44.6215 45.3185 L 44.4801 45.2369 " />
<path id= "34" d=" M 46.1215 42.7204 L 45.9801 42.6388 " />
<path id= "35" d=" M 47.6834 45.592 L 47.5419 45.5103 " />
<path id= "36" d=" M 49.1834 42.9939 L 49.0419 42.9123 " />
<path id= "37" d=" M 47.6834 41.5095 L 47.5419 41.4279 " />
<path id= "38" d=" M 49.1834 38.9114 L 49.0419 38.8298 " />
<path id= "39" d=" M 50.7452 41.783 L 50.6038 41.7013 " />
<path id= "40" d=" M 52.2452 39.1849 L 52.1038 39.1032 " />
<path id= "41" d=" M 50.7452 37.7005 L 50.6038 37.6188 " />
<path id= "42" d=" M 52.2452 35.1024 L 52.1038 35.0208 " />
<path id= "43" d=" M 47.6834 37.427 L 47.5419 37.3454 " />
<path id= "44" d=" M 49.1834 34.8289 L 49.0419 34.7473 " />
<path id= "45" d=" M -20.5415 5.07253 L -8.34386 12.1148 " />
<path id= "46" d=" M -5.89221 13.5303 L 14.2836 25.1788 " />
<path id= "47" d=" M 30.4763 34.5276 L 36.6722 38.1048 " />
<path id= "48" d=" M 36.6722 38.1048 L 36.6722 71.5096 " />
</g>
<g   fill="none"
   stroke="rgb(0, 0, 0)"
   stroke-linecap="butt"
   stroke-linejoin="miter"
   stroke-width="0.350000"
   transform="scale(1,-1)"
  >
<path id= "1" d=" M -4.31335 -7.3096 L 55.5095 27.2291 " />
<path id= "2" d=" M 55.5095 27.2291 L 55.5095 63.6467 " />
<path id= "3" d=" M -8.34386 12.1148 L -5.89221 13.5303 " />
<path id= "4" d=" M 14.2836 25.1788 L 30.4763 34.5276 " />
</g>
<g   fill="none"
   stroke="rgb(0, 0, 0)"
   stroke-linecap="butt"
   stroke-linejoin="miter"
   stroke-width="0.350000"
   transform="scale(1,-1)"
  >
<path id= "1" d=" M -1.17006 14.4335 L -1.16673 14.4316 " />
<path id= "2" d=" M -1.16673 14.4316 L 0.671751 15.493 " />
<path id= "3" d=" M -0.742462 6.51156 L -0.742462 14.6765 " />
<path id= "4" d=" M -1.41421 6.12372 L -0.742462 6.51156 " />
<path id= "5" d=" M 30.4763 24.5357 L 30.4763 34.5786 " />
<path id= "6" d=" M -1.16673 14.4354 L -1.16673 14.4316 " />
<path id= "7" d=" M 0.671751 15.493 L 0.671751 5.69506 " />
<path id= "8" d=" M 0.671751 5.69506 L -0.742462 6.51156 " />
<path id= "9" d=" M -2.37214 5.32957 L -2.58094 5.45011 " />
<path id= "10" d=" M -2.82843 5.30723 L -2.58094 5.45011 " />
<path id= "11" d=" M -2.82843 5.30723 L -5.65685 6.94022 " />
<path id= "12" d=" M -5.65685 6.94022 L -4.24264 7.75672 " />
<path id= "13" d=" M -1.41421 6.12372 L -4.24264 7.75672 " />
<path id= "14" d=" M -0.777817 4.85815 L 0.671751 5.69506 " />
<path id= "15" d=" M 0.693103 4.48265 L 3.90793 6.33873 " />
<path id= "16" d=" M -1.9799 5.55603 L -3.9598 4.41293 " />
<path d="M-3.9598 12.8228 A0.5 0.288675 180 0 0 -4.6669 12.8228" />
<path id= "18" d=" M -4.6669 12.8228 L -6.50831 13.886 " />
<path id= "19" d=" M -3.9598 12.8228 L -1.16673 14.4354 " />
<path id= "20" d=" M -2.82843 5.30723 L -2.82843 5.06613 " />
<path id= "21" d=" M -2.58094 5.45011 L -2.58094 5.20902 " />
<path id= "22" d=" M -5.65685 6.94022 L -5.65685 4.57962 " />
<path id= "23" d=" M -0.777817 4.86201 L -0.777817 4.85815 " />
<path id= "24" d=" M -0.777817 4.86201 L -1.9799 5.55603 " />
<path id= "25" d=" M 0.374983 3.64578 L 2.96985 5.14393 " />
<path d="M4.00908 6.72372 A1.5 0.866025 60 0 0 2.96985 5.14393" />
<path d="M1.41421 2.77609 A1.5 0.866025 60 0 0 0.664214 2.7018" />
<path d="M0.664214 2.7018 A1.5 0.866025 60 0 0 1.41421 5.22558" />
<path id= "29" d=" M 1.41421 2.77609 L 4.24264 4.40908 " />
<path id= "30" d=" M 1.41421 5.22558 L 4.24264 6.85857 " />
<path d="M4.24264 6.85857 A1.5 0.866025 60 0 0 4.99264 6.93286" />
<path d="M4.99264 6.93286 A1.5 0.866025 60 0 0 4.24264 4.40908" />
<path id= "33" d=" M 31.2541 24.9848 L 14.2836 15.1868 " />
<path id= "34" d=" M 31.2541 35.0277 L 31.2541 24.9848 " />
<path id= "35" d=" M 14.2836 25.2297 L 31.6077 35.2318 " />
<path id= "36" d=" M 14.2836 14.7786 L 14.2836 25.2297 " />
<path id= "37" d=" M 31.2541 24.9848 L 31.6077 24.7807 " />
<path id= "38" d=" M 31.6077 35.2318 L 31.6077 24.7807 " />
<path id= "39" d=" M 31.6077 24.7807 L 14.2836 14.7786 " />
<path d="M-3.9598 3.02489 A0.5 0.288675 180 0 0 -4.6669 3.02489" />
<path id= "41" d=" M -4.6669 3.02489 L -6.50831 4.08803 " />
<path id= "42" d=" M -6.50831 4.08803 L -5.30623 4.78205 " />
<path id= "43" d=" M -4.6669 4.41293 L -5.30623 4.78205 " />
<path d="M-3.9598 4.41293 A0.5 0.288675 180 0 0 -4.6669 4.41293" />
<path id= "45" d=" M -3.9598 3.02489 L -0.777817 4.86201 " />
<path d="M-3.9598,28.9038 C-4.14482,29.0107 -4.48188,29.2053 -4.6669,29.3121 " /><path id= "47" d=" M -3.9598 28.9038 L -3.9598 12.8228 " />
<path id= "48" d=" M -24.1123 40.5389 L -24.1123 3.88221 " />
<path id= "49" d=" M -24.1123 3.88221 L -4.6669 -7.34462 " />
<path id= "50" d=" M -6.50831 4.08803 L -6.22254 3.35149 " />
<path id= "51" d=" M -6.22254 3.35149 L -7.63675 4.16798 " />
<path id= "52" d=" M -7.63675 4.16798 L -7.35098 4.57454 " />
<path id= "53" d=" M -7.35098 4.57454 L -9.54594 5.8418 " />
<path id= "54" d=" M -9.54594 5.8418 L -9.54594 15.6398 " />
<path id= "55" d=" M -7.35098 14.3725 L -9.54594 15.6398 " />
<path id= "56" d=" M -7.63675 15.109 L -7.35098 14.3725 " />
<path id= "57" d=" M -6.22254 14.2925 L -7.63675 15.109 " />
<path id= "58" d=" M -6.50831 13.886 L -6.22254 14.2925 " />
<path id= "59" d=" M -24.1123 40.5389 L -4.6669 29.3121 " />
<path id= "60" d=" M -8.34386 6.53582 L -8.34386 14.9457 " />
<path id= "61" d=" M -6.1489 5.26856 L -8.34386 6.53582 " />
<path id= "62" d=" M -6.43467 4.86201 L -6.1489 5.26856 " />
<path id= "63" d=" M -5.80121 4.49627 L -6.43467 4.86201 " />
<path id= "64" d=" M 1.27279 5.13299 L 1.27279 4.81733 " />
<path id= "65" d=" M 2.68701 5.96043 L 2.68701 5.63383 " />
<path id= "66" d=" M -3.9598 3.02489 L -3.9598 -6.93637 " />
<path d="M-3.9598,-6.93637 C-4.05231,-7.09706 -4.18224,-7.23422 -4.31335,-7.3096 " /><path d="M-4.31335,-7.3096 C-4.44446,-7.38561 -4.57439,-7.39848 -4.6669,-7.34462 " /><path id= "69" d=" M -8.34386 10.6626 L -4.6331 12.805 " />
<path id= "70" d=" M 14.2836 23.7266 L 30.4763 33.0755 " />
<path d="M47.1549 63.0742 A3 1.73205 9.73842e-15 0 1 41.6577 63.0742" />
<path d="M55.363,63.1539 C55.4559,63.3143 55.5097,63.4954 55.5095,63.6467 " /><path d="M55.5095,63.6467 C55.5097,63.7982 55.4559,63.9172 55.363,63.9704 " /><path id= "74" d=" M 55.363 63.1539 L -3.9598 28.9038 " />
<path id= "75" d=" M 35.9176 75.1972 L -24.1123 40.5389 " />
<path id= "76" d=" M -8.34386 14.3742 L -7.84889 14.66 " />
<path id= "77" d=" M -7.63675 4.16798 L -6.43467 4.86201 " />
<path id= "78" d=" M -7.35098 4.57454 L -6.1489 5.26856 " />
<path id= "79" d=" M -9.54594 5.8418 L -8.34386 6.53582 " />
<path id= "80" d=" M -7.35098 14.3725 L -6.856 14.6583 " />
<path id= "81" d=" M 35.9176 75.1972 L 55.363 63.9704 " />
<path d="M42.285 62.5435 A3 1.73205 0 0 1 47.4063 63.7682" />
<path d="M47.4063 63.7682 A3 1.73205 0 0 1 41.4063 63.7682" />
<path d="M41.4063 63.7682 A3 1.73205 0 0 1 42.285 62.5435" />
<path id= "85" d=" M -3.9598 -6.93637 L 55.363 27.3137 " />
<path d="M55.363,27.3137 C55.4559,27.26 55.5097,27.229 55.5095,27.2291 " /><path id= "87" d=" M 55.363 27.3137 L 55.363 63.1539 " />
<path id= "88" d=" M -8.34386 10.7408 L -4.70226 12.8433 " />
<path id= "89" d=" M 14.2836 23.8047 L 30.4763 33.1536 " />
</g>
<g   fill="none"
   stroke="rgb(0, 0, 0)"
   stroke-linecap="butt"
   stroke-linejoin="miter"
   stroke-width="0.350000"
   transform="scale(1,-1)"
  >
<path id= "1" d=" M 0.353553 3.38846 L 1.41421 2.77609 " />
<path id= "2" d=" M 2.96985 5.14393 L 4.24264 4.40908 " />
<path id= "3" d=" M -4.6669 29.3121 L -4.6669 12.8228 " />
<path id= "4" d=" M -4.6669 3.02489 L -4.6669 -7.34462 " />
<path id= "5" d=" M 55.363 63.9704 L -4.6669 29.3121 " />
<path id= "6" d=" M -8.34386 12.0472 L -5.83363 13.4965 " />
<path id= "7" d=" M 14.2836 25.1111 L 30.4763 34.46 " />
</g>
<g   fill="none"
   stroke="rgb(0, 0, 0)"
   stroke-dasharray="0.09,0.05)"
   stroke-linecap="butt"
   stroke-linejoin="miter"
   stroke-width="0.150000"
   transform="scale(1,-1)"
  >
<path id= "1" d=" M -0.636396 2.49031 L -0.494975 2.40866 " />
<path id= "2" d=" M -0.636396 6.4095 L -0.494975 6.32785 " />
<path id= "3" d=" M 3.46482 8.77734 L 3.60624 8.69569 " />
<path id= "4" d=" M 3.46482 4.85815 L 3.60624 4.7765 " />
<path id= "5" d=" M 0.141421 5.96043 L 1.41421 5.22558 " />
<path id= "6" d=" M 0.141421 3.51094 L 0.353553 3.38846 " />
<path id= "7" d=" M 2.96985 7.59342 L 4.24264 6.85857 " />
<path id= "8" d=" M 27.1785 40.798 L 25.7643 39.9816 " />
<path id= "9" d=" M 27.4357 40.7432 L 26.0215 39.9267 " />
<path id= "10" d=" M 2.42974 26.5094 L 1.01553 25.6929 " />
<path id= "11" d=" M 2.68701 26.4545 L 1.27279 25.638 " />
<path id= "12" d=" M -4.6669 4.41293 L -4.6669 -4.56853 " />
<path id= "13" d=" M -4.6669 -4.56853 L 52.9588 28.7017 " />
<path id= "14" d=" M 52.9588 28.7017 L 52.9588 62.5823 " />
<path id= "15" d=" M 52.9588 62.5823 L -4.6669 29.3121 " />
<path id= "16" d=" M -4.6669 29.3121 L -4.6669 14.2109 " />
<path id= "17" d=" M -4.6669 -7.34462 L 55.363 27.3137 " />
<path id= "18" d=" M 55.363 27.3137 L 55.363 63.9704 " />
<path id= "19" d=" M 1.01553 5.79437 L 2.42974 6.61087 " />
<path id= "20" d=" M 1.27279 5.55218 L 2.68701 6.36867 " />
<path id= "21" d=" M 25.7643 20.0831 L 27.1785 20.8996 " />
<path id= "22" d=" M 26.0215 19.8409 L 27.4357 20.6574 " />
<path id= "23" d=" M -20.4 38.3956 L -20.4 5.08654 " />
<path id= "24" d=" M -20.4 5.08654 L -8.34386 12.0472 " />
<path id= "25" d=" M -5.83363 13.4965 L 14.2836 25.1111 " />
<path id= "26" d=" M 30.4763 34.46 L 36.7307 38.071 " />
<path id= "27" d=" M 36.7307 38.071 L 36.7307 71.3801 " />
<path id= "28" d=" M 36.7307 71.3801 L -20.4 38.3956 " />
</g>
</g>



<g id="tapa"
   transform="rotate(-4.13472e-14,50,125) translate(50,125) scale(1,1)"
  >
<g   fill="none"
   stroke="rgb(0, 0, 0)"
   stroke-linecap="butt"
   stroke-linejoin="miter"
   stroke-width="0.350000"
   transform="scale(1,-1)"
  >
<path id= "1" d=" M 21.9443 54.0105 L 14.8733 49.928 " />
<path id= "2" d=" M -2.3448 39.9872 L -9.41586 35.9047 " />
<path id= "3" d=" M 30.5754 49.8154 L 23.5043 45.7329 " />
<path id= "4" d=" M 30.5754 35.0179 L 23.5043 30.9355 " />
<path id= "5" d=" M 6.28626 35.7921 L -0.784809 31.7096 " />
<path id= "6" d=" M 6.28626 20.9946 L -0.784809 16.9121 " />
</g>
<g   fill="none"
   stroke="rgb(0, 0, 0)"
   stroke-linecap="butt"
   stroke-linejoin="miter"
   stroke-width="0.350000"
   transform="scale(1,-1)"
  >
<path id= "1" d=" M -24.1831 40.5869 L 35.8687 75.2578 " />
<path id= "2" d=" M -24.1831 40.5869 L -24.8902 40.9952 " />
<path id= "3" d=" M -24.8902 40.9952 L 35.1616 75.6661 " />
<path id= "4" d=" M 35.8687 75.2578 L 35.1616 75.6661 " />
<path id= "5" d=" M -24.1831 3.90499 L -24.1831 40.5869 " />
<path id= "6" d=" M -24.1831 3.90499 L -24.8902 4.31324 " />
<path id= "7" d=" M -24.8902 4.31324 L -24.8902 40.9952 " />
<path id= "8" d=" M 35.8687 75.2578 L 35.8687 72.3185 " />
<path id= "9" d=" M -21.6375 5.37469 L -24.1831 3.90499 " />
<path id= "10" d=" M -22.9103 39.8521 L 34.5959 73.0533 " />
<path id= "11" d=" M -22.9103 6.10953 L -22.9103 39.8521 " />
<path id= "12" d=" M -20.7889 38.6273 L 36.7172 71.8286 " />
<path id= "13" d=" M -20.7889 38.6273 L -22.9103 39.8521 " />
<path id= "14" d=" M 36.7172 71.8286 L 34.5959 73.0533 " />
<path id= "15" d=" M -20.7889 4.88479 L -20.7889 38.6273 " />
<path id= "16" d=" M -20.7889 4.88479 L -22.9103 6.10953 " />
<path id= "17" d=" M 36.7172 71.8286 L 36.7172 71.2897 " />
<path id= "18" d=" M -20.3222 5.15423 L -20.7889 4.88479 " />
<path id= "19" d=" M -20.697 38.5743 L 36.6253 71.6693 " />
<path id= "20" d=" M 36.6253 71.6693 L 36.6253 71.3427 " />
<path id= "21" d=" M -20.4142 5.2073 L -20.697 5.044 " />
<path id= "22" d=" M -20.697 5.044 L -20.697 38.5743 " />
<path d="M-20.4142,38.411 C-20.4882,38.4537 -20.623,38.5315 -20.697,38.5743 " /><path d="M36.6253,71.3427 Q36.5681,71.378 36.5667,71.4722 " /><path d="M36.5667,71.4722 C36.5666,71.5327 36.5882,71.6052 36.6253,71.6693 " /><path id= "26" d=" M -19.09 37.6465 L -20.4142 38.411 " />
<path id= "27" d=" M 37.5466 70.8108 L 36.6253 71.3427 " />
<path d="M-20.4142,5.2073 Q-20.4733,5.23926 -20.5556,5.1933 " /><path d="M-20.5556,5.1933 C-20.608,5.16314 -20.66,5.10828 -20.697,5.04401 " /><path id= "30" d=" M -19.4929 37.8791 L 38.0133 71.0803 " />
<path id= "31" d=" M -19.4929 4.6754 L -20.4142 5.2073 " />
<path id= "32" d=" M -18.7858 37.4708 L 38.7204 70.672 " />
<path id= "33" d=" M -18.7858 37.4708 L -19.4929 37.8791 " />
<path id= "34" d=" M 38.7204 70.672 L 38.0133 71.0803 " />
<path id= "35" d=" M -19.4929 4.13651 L -19.4929 37.8791 " />
<path id= "36" d=" M -17.9312 36.9774 L 38.5851 69.6071 " />
<path id= "37" d=" M -17.9312 36.9774 L -18.7858 37.4708 " />
<path id= "38" d=" M 38.5851 69.6071 L 38.7204 70.672 " />
<path id= "39" d=" M -18.7858 3.72826 L -18.7858 37.4708 " />
<path id= "40" d=" M -18.7858 3.72826 L -19.4929 4.13651 " />
<path id= "41" d=" M 38.7204 70.672 L 38.7204 36.9295 " />
<path id= "42" d=" M -17.9312 4.37796 L -17.9312 36.9774 " />
<path id= "43" d=" M -17.9312 4.37796 L -18.7858 3.72826 " />
<path id= "44" d=" M 38.5851 69.6071 L 38.5851 37.0076 " />
<path id= "45" d=" M 38.5851 37.0076 L 38.7204 36.9295 " />
<path id= "46" d=" M 38.7204 36.9295 L -18.7858 3.72826 " />
<path id= "47" d=" M 38.5851 37.0076 L -17.9312 4.37796 " />
<path id= "48" d=" M -17.7191 36.8549 L 38.3729 69.2397 " />
<path id= "49" d=" M 38.3729 69.2397 L 38.3729 37.1301 " />
<path id= "50" d=" M 38.3729 37.1301 L -17.7191 4.74538 " />
<path id= "51" d=" M -17.7191 4.74538 L -17.7191 36.8549 " />
<path id= "52" d=" M 34.3838 39.4332 L 34.3838 66.9365 " />
<path id= "53" d=" M -17.7191 9.35163 L -3.4639 17.5818 " />
<path id= "54" d=" M 4.93741 22.4323 L 20.8252 31.6052 " />
<path id= "55" d=" M 29.2265 36.4557 L 34.3838 39.4332 " />
<path id= "56" d=" M 17.57 49.052 L 14.2836 47.1546 " />
<path id= "57" d=" M 14.2836 47.1546 L 14.2836 49.5025 " />
<path id= "58" d=" M 14.2836 38.6791 L 14.2836 41.027 " />
<path id= "59" d=" M 21.3546 45.1095 L 14.2836 41.027 " />
<path id= "60" d=" M -6.71916 35.0287 L -10.0056 33.1313 " />
<path id= "61" d=" M -10.0056 33.1313 L -10.0056 35.4792 " />
<path id= "62" d=" M -10.0056 24.6558 L -10.0056 27.0037 " />
<path id= "63" d=" M -2.93449 31.0862 L -10.0056 27.0037 " />
<path id= "64" d=" M 38.3729 37.1301 L 34.3838 39.4332 " />
<path d="M21.9443 54.0105 A10.7 6.17765 -60 0 0 30.4194 50.8962" />
<path d="M30.4194 50.8962 A0.75 0.433013 -60 0 0 30.5754 49.8154" />
<path d="M14.2836 47.1546 A9.2 5.31162 -60 0 0 15.6233 48.629" />
<path d="M15.6233 48.629 A9.2 5.31162 -60 0 0 22.9103 45.9512" />
<path d="M14.2836 49.5025 A10.7 6.17765 -60 0 0 14.8733 49.928" />
<path d="M14.8733 49.928 A10.7 6.17765 -60 0 0 23.3484 46.8137" />
<path d="M23.3484 46.8137 A0.75 0.433013 -60 0 0 23.5043 45.7329" />
<path d="M23.5043 45.7329 A0.75 0.433013 -60 0 0 22.9103 45.9512" />
<path d="M23.3484 30.9008 A10.7 6.17765 -60 0 0 14.2836 38.6791" />
<path d="M29.9813 36.3516 A0.75 0.433013 -60 0 0 30.5754 35.0179" />
<path d="M29.9813 36.3516 A9.2 5.31162 -60 0 0 21.3546 45.1095" />
<path d="M22.9103 32.2691 A0.75 0.433013 -60 0 0 23.5043 30.9355" />
<path d="M23.5043 30.9355 A0.75 0.433013 -60 0 0 23.3484 30.9008" />
<path d="M22.9103 32.2691 A9.2 5.31162 -60 0 0 14.2836 41.027" />
<path d="M-2.3448 39.9872 A10.7 6.17765 -60 0 0 6.13031 36.8728" />
<path d="M6.13031 36.8728 A0.75 0.433013 -60 0 0 6.28626 35.7921" />
<path d="M-10.0056 33.1313 A9.2 5.31162 -60 0 0 -8.66586 34.6056" />
<path d="M-8.66586 34.6056 A9.2 5.31162 -60 0 0 -1.37886 31.9279" />
<path d="M-10.0056 35.4792 A10.7 6.17765 -60 0 0 -9.41586 35.9047" />
<path d="M-9.41586 35.9047 A10.7 6.17765 -60 0 0 -0.940759 32.7904" />
<path d="M-0.940759 32.7904 A0.75 0.433013 -60 0 0 -0.784809 31.7096" />
<path d="M-0.784809 31.7096 A0.75 0.433013 -60 0 0 -1.37886 31.9279" />
<path d="M-0.940759 16.8775 A10.7 6.17765 -60 0 0 -10.0056 24.6558" />
<path d="M5.69221 22.3283 A0.75 0.433013 -60 0 0 6.28626 20.9946" />
<path d="M5.69221 22.3283 A9.2 5.31162 -60 0 0 -2.93449 31.0862" />
<path d="M-1.37886 18.2458 A0.75 0.433013 -60 0 0 -0.784809 16.9121" />
<path d="M-0.784809 16.9121 A0.75 0.433013 -60 0 0 -0.940759 16.8775" />
<path d="M-1.37886 18.2458 A9.2 5.31162 -60 0 0 -10.0056 27.0037" />
</g>
</g>



<g id="usb"
   transform="rotate(-4.13472e-14,80,150) translate(80,150) scale(1,1)"
  >
<g   fill="none"
   stroke="rgb(0, 0, 0)"
   stroke-linecap="butt"
   stroke-linejoin="miter"
   stroke-width="0.350000"
   transform="scale(1,-1)"
  >
<path id= "1" d=" M 0.509117 5.92777 L 0.509117 15.3991 " />
<path id= "2" d=" M 0.509117 15.3991 L -4.31335 12.6149 " />
<path id= "3" d=" M -4.31335 3.14351 L -4.31335 12.6149 " />
<path id= "4" d=" M 0.509117 5.92777 L -4.31335 3.14351 " />
<path id= "5" d=" M -4.31335 3.14351 L -6.61184 4.47055 " />
<path id= "6" d=" M -4.31335 12.6149 L -6.61184 13.9419 " />
<path id= "7" d=" M 0.509117 15.3991 L -1.78937 16.7262 " />
<path id= "8" d=" M -6.61184 13.9419 L -1.78937 16.7262 " />
<path id= "9" d=" M -7.25038 4.26766 L -6.32607 3.73401 " />
<path id= "10" d=" M -6.96461 4.67422 L -7.25038 4.26766 " />
<path id= "11" d=" M -9.2631 6.00125 L -6.96461 4.67422 " />
<path id= "12" d=" M -9.2631 6.00125 L -9.2631 15.4726 " />
<path id= "13" d=" M -9.2631 15.4726 L -6.96461 14.1456 " />
<path id= "14" d=" M -6.96461 14.1456 L -7.25038 14.8821 " />
<path id= "15" d=" M -7.25038 14.8821 L -6.32607 14.3485 " />
<path id= "16" d=" M -6.32607 14.3485 L -6.61184 13.9419 " />
<path id= "17" d=" M -6.32607 3.73401 L -6.61184 4.47055 " />
<path id= "18" d=" M -4.44063 18.2569 L -2.92289 17.3806 " />
<path id= "19" d=" M -2.42791 17.6664 L -1.5036 17.1327 " />
<path id= "20" d=" M -1.5036 17.1327 L -1.78937 16.7262 " />
<path id= "21" d=" M -6.32607 3.73401 L -5.83109 4.01978 " />
<path id= "22" d=" M -1.5036 17.1327 L -6.32607 14.3485 " />
<path id= "23" d=" M -2.42791 17.6664 L -7.25038 14.8821 " />
<path id= "24" d=" M -4.44063 18.2569 L -9.2631 15.4726 " />
</g>
</g>



<g id="Ortho_-1_1"
   transform="rotate(-4.13472e-14,80,150) translate(80,150) scale(1,1)"
  >
<g   fill="none"
   stroke="rgb(0, 0, 0)"
   stroke-linecap="butt"
   stroke-linejoin="miter"
   stroke-width="0.350000"
   transform="scale(1,-1)"
  >
<path id= "1" d=" M -0.518934 3.87768 L 0.96599 3.02036 " />
<path id= "2" d=" M 3.20594 7.47162 L 4.69086 6.6143 " />
<path id= "3" d=" M 1.84099 3.05751 L 4.31586 4.48638 " />
<path d="M0.96599,3.02036 C1.0297,2.9824 1.10483,2.95385 1.19139,2.93472  C1.26988,2.91693 1.36023,2.91377 1.46243,2.92525  C1.58074,2.93932 1.72025,2.9867 1.84099,3.05751 " /><path id= "5" d=" M -0.881066 3.4954 L -1.02249 3.57705 " />
<path id= "6" d=" M 3.56807 7.8539 L 3.42665 7.93555 " />
<path d="M4.31586,4.48638 C4.44775,4.56243 4.58816,4.67731 4.71785,4.83769  C4.82054,4.9645 4.91649,5.1215 4.98595,5.29631  C5.05658,5.4714 5.0944,5.66158 5.09601,5.81698  C5.09849,5.98345 5.06867,6.11117 5.02898,6.21332  C4.98995,6.30909 4.9429,6.3881 4.88785,6.45033  C4.8287,6.51849 4.76304,6.57315 4.69086,6.6143 " /></g>
<g   fill="none"
   stroke="rgb(0, 0, 0)"
   stroke-linecap="butt"
   stroke-linejoin="miter"
   stroke-width="0.350000"
   transform="scale(1,-1)"
  >
<path id= "1" d=" M 1.30815 6.34826 L 1.94454 6.71568 " />
<path id= "2" d=" M 1.94454 6.71568 L 1.6617 6.87898 " />
<path id= "3" d=" M 4.06586 6.55239 L 2.58094 7.40971 " />
<path id= "4" d=" M 1.6617 6.87898 L 2.58094 7.40971 " />
<path id= "5" d=" M 1.30815 6.34826 L 1.0253 6.51156 " />
<path id= "6" d=" M 0.106066 5.98084 L 1.0253 6.51156 " />
<path id= "7" d=" M 1.59099 5.12352 L 0.106066 5.98084 " />
<path d="M-0.518934 3.87768 A1.25 0.721688 60 0 0 0.106066 5.98084" />
<path d="M-0.106066 3.57217 A1.55 0.894893 60 0 0 -0.881066 3.4954" />
<path d="M-0.881066 3.4954 A1.55 0.894893 60 0 0 -0.106066 6.10331" />
<path id= "11" d=" M -0.106066 3.57217 L -0.0479185 3.60574 " />
<path id= "12" d=" M -0.106066 6.10331 L 2.79307 7.77713 " />
<path d="M2.79307 7.77713 A1.55 0.894893 60 0 0 3.56807 7.8539" />
<path d="M3.56807 7.8539 A1.55 0.894893 60 0 0 3.88762 7.07805" />
<path id= "15" d=" M 1.0253 6.51156 L 1.6617 6.87898 " />
<path d="M2.58094 7.40971 A1.25 0.721688 60 0 0 3.20594 7.47162" />
<path d="M-1.02249 3.57705 A1.55 0.894893 60 0 0 -0.247487 6.18496" />
<path id= "18" d=" M -0.247487 6.18496 L 2.65165 7.85878 " />
<path d="M2.65165 7.85878 A1.55 0.894893 60 0 0 3.42665 7.93555" />
</g>
<g   fill="none"
   stroke="rgb(0, 0, 0)"
   stroke-linecap="butt"
   stroke-linejoin="miter"
   stroke-width="0.350000"
   transform="scale(1,-1)"
  >
<path id= "1" d=" M 4.06586 6.55239 L 1.59099 5.12352 " />
<path d="M1.59099 5.12352 A1.25 0.721688 -120 0 1 0.96599 3.02036" />
<path d="M4.69086 6.6143 A1.25 0.721688 -120 0 1 4.06586 6.55239" />
<path d="M1.84099 3.05751 A0.5 0.288675 120 0 1 1.94454 3.2864" />
<path id= "5" d=" M 1.94454 3.2864 L 4.41942 4.71527 " />
<path d="M4.31586 4.48638 A0.5 0.288675 120 0 1 4.41942 4.71527" />
<path d="M4.06586 6.55239 A0.5 0.288675 -60 0 0 4.41942 5.94001" />
<path id= "8" d=" M 4.41942 5.94001 L 1.94454 4.51114 " />
<path d="M1.59099 5.12352 A0.5 0.288675 -60 0 0 1.94454 4.51114" />
<path d="M1.94454 4.51114 A0.75 0.433013 -120 1 1 1.94454 3.2864" />
<path id= "11" d=" M -0.247487 6.18496 L -0.106066 6.10331 " />
<path id= "12" d=" M 2.65165 7.85878 L 2.79307 7.77713 " />
<path d="M4.41942 4.71527 A0.75 0.433013 -120 1 1 4.41942 5.94001" />
</g>
</g>



<g id="Ortho_-1_1"
   transform="rotate(-4.13472e-14,80,150) translate(80,150) scale(1,1)"
  >
<g   fill="none"
   stroke="rgb(0, 0, 0)"
   stroke-linecap="butt"
   stroke-linejoin="miter"
   stroke-width="0.350000"
   transform="scale(1,-1)"
  >
<path id= "1" d=" M 48.4147 71.7512 L 49.1356 63.9133 " />
<path d="M48.4063,71.9336 Q48.4063,71.8415 48.4147,71.7512 " /><path id= "3" d=" M 40.398 71.7512 L 39.677 63.9133 " />
<path id= "4" d=" M 48.4063 109.503 L 48.4063 71.9336 " />
<path d="M40.4063,71.9336 Q40.4063,71.8415 40.398,71.7512 " /><path id= "6" d=" M 40.4063 109.503 L 40.4063 71.9336 " />
<path id= "7" d=" M 48.4063 110.728 L 48.4063 109.911 " />
<path id= "8" d=" M 40.4063 110.728 L 40.4063 109.911 " />
<path id= "9" d=" M 48.4063 115.463 L 48.4063 111.136 " />
<path id= "10" d=" M 40.4063 115.463 L 40.4063 111.136 " />
<path d="M42.4063 118.927 A4 4 0 0 1 40.4063 115.463" /><path d="M48.4063 115.463 A4 4 0 0 1 42.4063 118.927" /></g>
<g   fill="none"
   stroke="rgb(0, 0, 0)"
   stroke-linecap="butt"
   stroke-linejoin="miter"
   stroke-width="0.350000"
   transform="scale(1,-1)"
  >
<path d="M49.1356 63.9133 A4.736 2.73433 180 0 0 41.0575 61.8348" />
<path d="M41.0575 61.8348 A4.736 2.73433 180 0 0 39.677 63.9133" />
<path d="M48.3907 109.707 A4 2.3094 180 0 0 48.4063 109.503" />
<path d="M48.4063 109.503 A4 2.3094 180 0 0 41.5779 107.87" />
<path d="M48.0159 108.916 A3.75 2.16506 180 0 0 41.7547 107.972" />
<path d="M41.7547 107.972 A3.75 2.16506 180 0 0 40.7967 108.916" />
<path d="M41.5779 107.87 A4 2.3094 180 0 0 40.4063 109.503" />
<path d="M40.4063 109.503 A4 2.3094 180 0 0 40.422 109.707" />
<path d="M48.4063 109.911 A4 2.3094 180 0 0 41.5779 108.278" />
<path d="M41.5779 108.278 A4 2.3094 180 0 0 40.4063 109.911" />
<path d="M48.3907 110.932 A4 2.3094 180 0 0 48.4063 110.728" />
<path d="M48.4063 110.728 A4 2.3094 180 0 0 41.5779 109.095" />
<path d="M41.5779 109.095 A4 2.3094 180 0 0 40.4063 110.728" />
<path d="M40.4063 110.728 A4 2.3094 180 0 0 40.422 110.932" />
<path d="M48.0159 110.141 A3.75 2.16506 180 0 0 41.7547 109.197" />
<path d="M41.7547 109.197 A3.75 2.16506 180 0 0 40.7967 110.141" />
<path d="M48.4063 111.136 A4 2.3094 180 0 0 41.5779 109.503" />
<path d="M41.5779 109.503 A4 2.3094 180 0 0 40.4063 111.136" />
</g>
<g   fill="none"
   stroke="rgb(0, 0, 0)"
   stroke-linecap="butt"
   stroke-linejoin="miter"
   stroke-width="0.350000"
   transform="scale(1,-1)"
  >
<path d="M48.4147 71.7512 A4.014 2.31749 180 0 0 41.568 69.9896" />
<path id= "2" d=" M 41.568 69.9896 L 41.0575 61.8348 " />
<path d="M48.4063 71.9336 A4 2.3094 180 0 0 41.5779 70.3006" />
<path d="M41.568 69.9896 A5 2.88675 -120 0 1 41.5779 70.3006" />
<path d="M41.568 69.9896 A4.014 2.31749 180 0 0 40.398 71.7512" />
<path id= "6" d=" M 41.5779 107.87 L 41.5779 70.3006 " />
<path d="M41.5779 70.3006 A4 2.3094 180 0 0 40.4063 71.9336" />
<path id= "8" d=" M 41.7547 108.182 L 41.7547 107.972 " />
<path id= "9" d=" M 41.5779 109.095 L 41.5779 108.278 " />
<path id= "10" d=" M 41.7547 109.407 L 41.7547 109.197 " />
<path d="M47.2347 113.83 A4 2.3094 180 0 0 41.5779 113.83" />
<path id= "12" d=" M 41.5779 113.83 L 41.5779 109.503 " />
<path d="M48.4063 115.463 A4 2.3094 180 0 0 47.2347 113.83" />
<path d="M41.5779 113.83 A4 2.3094 180 0 0 40.4063 115.463" />
<path d="M44.4063 118.729 A4 2.3094 -60 0 0 47.2347 113.83" />
<path d="M44.4063 118.729 A4 2.3094 120 0 1 42.4063 118.927" />
</g>
</g>



</svg>

